Introduction to R, the tidyverse way
…
```r
(tidy_df <- untidy_df %>%
  pivot_longer(-age,names_to = c("gender","year"),
               values_to = "value",names_sep = "_"))
```

```
## # A tibble: 78 × 4
##      age gender year  value
##    <int> <chr>  <chr> <dbl>
##  1    18 male   2016  52579
##  2    18 female 2016  52796
##  3    18 male   2017  55592
##  4    18 female 2017  50408
##  5    18 male   2018  50659
##  6    18 female 2018  49530
##  7    19 male   2016  52374
##  8    19 female 2016  53110
##  9    19 male   2017  56601
## 10    19 female 2017  53242
## # … with 68 more rows
```
…
```r
mtcars_tbl
```

```
## # A tibble: 32 × 11
##      mpg   cyl  disp    hp  drat    wt  qsec    vs    am  gear  carb
##    <dbl> <dbl> <dbl> <dbl> <dbl> <dbl> <dbl> <dbl> <dbl> <dbl> <dbl>
##  1  21       6  160    110  3.9   2.62  16.5     0     1     4     4
##  2  21       6  160    110  3.9   2.88  17.0     0     1     4     4
##  3  22.8     4  108     93  3.85  2.32  18.6     1     1     4     1
##  4  21.4     6  258    110  3.08  3.22  19.4     1     0     3     1
##  5  18.7     8  360    175  3.15  3.44  17.0     0     0     3     2
##  6  18.1     6  225    105  2.76  3.46  20.2     1     0     3     1
##  7  14.3     8  360    245  3.21  3.57  15.8     0     0     3     4
##  8  24.4     4  147.    62  3.69  3.19  20       1     0     4     2
##  9  22.8     4  141.    95  3.92  3.15  22.9     1     0     4     2
## 10  19.2     6  168.   123  3.92  3.44  18.3     1     0     4     4
## # … with 22 more rows
```
…
```r
mtcars %>% filter(cyl!=4)
```

```
## # A tibble: 21 × 12
##      mpg   cyl  disp    hp  drat    wt  qsec    vs    am  gear  carb name       
##    <dbl> <dbl> <dbl> <dbl> <dbl> <dbl> <dbl> <dbl> <dbl> <dbl> <dbl> <chr>      
##  1  21       6  160    110  3.9   2.62  16.5     0     1     4     4 Mazda RX4  
##  2  21       6  160    110  3.9   2.88  17.0     0     1     4     4 Mazda RX4 …
##  3  21.4     6  258    110  3.08  3.22  19.4     1     0     3     1 Hornet 4 D…
##  4  18.7     8  360    175  3.15  3.44  17.0     0     0     3     2 Hornet Spo…
##  5  18.1     6  225    105  2.76  3.46  20.2     1     0     3     1 Valiant    
##  6  14.3     8  360    245  3.21  3.57  15.8     0     0     3     4 Duster 360 
##  7  19.2     6  168.   123  3.92  3.44  18.3     1     0     4     4 Merc 280   
##  8  17.8     6  168.   123  3.92  3.44  18.9     1     0     4     4 Merc 280C  
##  9  16.4     8  276.   180  3.07  4.07  17.4     0     0     3     3 Merc 450SE 
## 10  17.3     8  276.   180  3.07  3.73  17.6     0     0     3     3 Merc 450SL 
## # … with 11 more rows
```
…
```r
select(mtcars,hp,mpg,cyl)
```

```
## # A tibble: 32 × 3
##       hp   mpg   cyl
##    <dbl> <dbl> <dbl>
##  1   110  21       6
##  2   110  21       6
##  3    93  22.8     4
##  4   110  21.4     6
##  5   175  18.7     8
##  6   105  18.1     6
##  7   245  14.3     8
##  8    62  24.4     4
##  9    95  22.8     4
## 10   123  19.2     6
## # … with 22 more rows
```
---
## dplyr::select()

```r
mtcars %>% select(-mpg)
```

```
## # A tibble: 32 × 11
##      cyl  disp    hp  drat    wt  qsec    vs    am  gear  carb name             
##    <dbl> <dbl> <dbl> <dbl> <dbl> <dbl> <dbl> <dbl> <dbl> <dbl> <chr>            
##  1     6  160    110  3.9   2.62  16.5     0     1     4     4 Mazda RX4        
##  2     6  160    110  3.9   2.88  17.0     0     1     4     4 Mazda RX4 Wag    
##  3     4  108     93  3.85  2.32  18.6     1     1     4     1 Datsun 710       
##  4     6  258    110  3.08  3.22  19.4     1     0     3     1 Hornet 4 Drive   
##  5     8  360    175  3.15  3.44  17.0     0     0     3     2 Hornet Sportabout
##  6     6  225    105  2.76  3.46  20.2     1     0     3     1 Valiant          
##  7     8  360    245  3.21  3.57  15.8     0     0     3     4 Duster 360       
##  8     4  147.    62  3.69  3.19  20       1     0     4     2 Merc 240D        
##  9     4  141.    95  3.92  3.15  22.9     1     0     4     2 Merc 230         
## 10     6  168.   123  3.92  3.44  18.3     1     0     4     4 Merc 280         
## # … with 22 more rows
```
---
## dplyr::select()

```r
mtcars %>% select(starts_with("c"),starts_with("h"))
```

```
## # A tibble: 32 × 3
##      cyl  carb    hp
##    <dbl> <dbl> <dbl>
##  1     6     4   110
##  2     6     4   110
##  3     4     1    93
##  4     6     1   110
##  5     8     2   175
##  6     6     1   105
##  7     8     4   245
##  8     4     2    62
##  9     4     2    95
## 10     6     4   123
## # … with 22 more rows
```
---
## dplyr::arrange()

```r
mtcars %>% arrange(mpg)
```

```
## # A tibble: 32 × 12
##      mpg   cyl  disp    hp  drat    wt  qsec    vs    am  gear  carb name       
##    <dbl> <dbl> <dbl> <dbl> <dbl> <dbl> <dbl> <dbl> <dbl> <dbl> <dbl> <chr>      
##  1  10.4     8  472    205  2.93  5.25  18.0     0     0     3     4 Cadillac F…
##  2  10.4     8  460    215  3     5.42  17.8     0     0     3     4 Lincoln Co…
##  3  13.3     8  350    245  3.73  3.84  15.4     0     0     3     4 Camaro Z28 
##  4  14.3     8  360    245  3.21  3.57  15.8     0     0     3     4 Duster 360 
##  5  14.7     8  440    230  3.23  5.34  17.4     0     0     3     4 Chrysler I…
##  6  15       8  301    335  3.54  3.57  14.6     0     1     5     8 Maserati B…
##  7  15.2     8  276.   180  3.07  3.78  18       0     0     3     3 Merc 450SLC
##  8  15.2     8  304    150  3.15  3.44  17.3     0     0     3     2 AMC Javelin
##  9  15.5     8  318    150  2.76  3.52  16.9     0     0     3     2 Dodge Chal…
## 10  15.8     8  351    264  4.22  3.17  14.5     0     1     5     4 Ford Pante…
## # … with 22 more rows
```
---
## dplyr::arrange()

```r
mtcars %>% arrange(desc(mpg))
```

```
## # A tibble: 32 × 12
##      mpg   cyl  disp    hp  drat    wt  qsec    vs    am  gear  carb name       
##    <dbl> <dbl> <dbl> <dbl> <dbl> <dbl> <dbl> <dbl> <dbl> <dbl> <dbl> <chr>      
##  1  33.9     4  71.1    65  4.22  1.84  19.9     1     1     4     1 Toyota Cor…
##  2  32.4     4  78.7    66  4.08  2.2   19.5     1     1     4     1 Fiat 128   
##  3  30.4     4  75.7    52  4.93  1.62  18.5     1     1     4     2 Honda Civic
##  4  30.4     4  95.1   113  3.77  1.51  16.9     1     1     5     2 Lotus Euro…
##  5  27.3     4  79      66  4.08  1.94  18.9     1     1     4     1 Fiat X1-9  
##  6  26       4 120.     91  4.43  2.14  16.7     0     1     5     2 Porsche 91…
##  7  24.4     4 147.     62  3.69  3.19  20       1     0     4     2 Merc 240D  
##  8  22.8     4 108      93  3.85  2.32  18.6     1     1     4     1 Datsun 710 
##  9  22.8     4 141.     95  3.92  3.15  22.9     1     0     4     2 Merc 230   
## 10  21.5     4 120.     97  3.7   2.46  20.0     1     0     3     1 Toyota Cor…
## # … with 22 more rows
```
---
## dplyr::arrange()

```r
mtcars %>% arrange(desc(cyl),disp)
```

```
## # A tibble: 32 × 12
##      mpg   cyl  disp    hp  drat    wt  qsec    vs    am  gear  carb name       
##    <dbl> <dbl> <dbl> <dbl> <dbl> <dbl> <dbl> <dbl> <dbl> <dbl> <dbl> <chr>      
##  1  16.4     8  276.   180  3.07  4.07  17.4     0     0     3     3 Merc 450SE 
##  2  17.3     8  276.   180  3.07  3.73  17.6     0     0     3     3 Merc 450SL 
##  3  15.2     8  276.   180  3.07  3.78  18       0     0     3     3 Merc 450SLC
##  4  15       8  301    335  3.54  3.57  14.6     0     1     5     8 Maserati B…
##  5  15.2     8  304    150  3.15  3.44  17.3     0     0     3     2 AMC Javelin
##  6  15.5     8  318    150  2.76  3.52  16.9     0     0     3     2 Dodge Chal…
##  7  13.3     8  350    245  3.73  3.84  15.4     0     0     3     4 Camaro Z28 
##  8  15.8     8  351    264  4.22  3.17  14.5     0     1     5     4 Ford Pante…
##  9  18.7     8  360    175  3.15  3.44  17.0     0     0     3     2 Hornet Spo…
## 10  14.3     8  360    245  3.21  3.57  15.8     0     0     3     4 Duster 360 
## # … with 22 more rows
```

---
## dplyr::mutate()

```r
mtcars %>% 
  mutate(hpsquare=hp^2) %>%
  select(mpg,cyl,disp,hp,hpsquare)
```

```
## # A tibble: 32 × 5
##      mpg   cyl  disp    hp hpsquare
##    <dbl> <dbl> <dbl> <dbl>    <dbl>
##  1  21       6  160    110    12100
##  2  21       6  160    110    12100
##  3  22.8     4  108     93     8649
##  4  21.4     6  258    110    12100
##  5  18.7     8  360    175    30625
##  6  18.1     6  225    105    11025
##  7  14.3     8  360    245    60025
##  8  24.4     4  147.    62     3844
##  9  22.8     4  141.    95     9025
## 10  19.2     6  168.   123    15129
## # … with 22 more rows
```
---
## dplyr::mutate()

```r
mtcars %>% 
  mutate(randomnoise=rnorm(nrow(.),mean=0,sd=1),
         mpg_with_random_noise = mpg+randomnoise) %>%
  select(mpg,cyl,disp,randomnoise,mpg_with_random_noise)
```

```
## # A tibble: 32 × 5
##      mpg   cyl  disp randomnoise mpg_with_random_noise
##    <dbl> <dbl> <dbl>       <dbl>                 <dbl>
##  1  21       6  160       -0.391                  20.6
##  2  21       6  160        3.10                   24.1
##  3  22.8     4  108       -1.88                   20.9
##  4  21.4     6  258        0.565                  22.0
##  5  18.7     8  360        1.31                   20.0
##  6  18.1     6  225        0.734                  18.8
##  7  14.3     8  360       -0.848                  13.5
##  8  24.4     4  147.       1.32                   25.7
##  9  22.8     4  141.      -0.505                  22.3
## 10  19.2     6  168.      -0.652                  18.5
## # … with 22 more rows
```
---
## dplyr::mutate()

```r
mtcars %>% 
  mutate(cyl=factor(cyl,levels=c(4,6,8),
                    labels=c("4 Cyl","6 Cyl","8 Cyl")))
```

```
## # A tibble: 32 × 12
##      mpg cyl    disp    hp  drat    wt  qsec    vs    am  gear  carb name       
##    <dbl> <fct> <dbl> <dbl> <dbl> <dbl> <dbl> <dbl> <dbl> <dbl> <dbl> <chr>      
##  1  21   6 Cyl  160    110  3.9   2.62  16.5     0     1     4     4 Mazda RX4  
##  2  21   6 Cyl  160    110  3.9   2.88  17.0     0     1     4     4 Mazda RX4 …
##  3  22.8 4 Cyl  108     93  3.85  2.32  18.6     1     1     4     1 Datsun 710 
##  4  21.4 6 Cyl  258    110  3.08  3.22  19.4     1     0     3     1 Hornet 4 D…
##  5  18.7 8 Cyl  360    175  3.15  3.44  17.0     0     0     3     2 Hornet Spo…
##  6  18.1 6 Cyl  225    105  2.76  3.46  20.2     1     0     3     1 Valiant    
##  7  14.3 8 Cyl  360    245  3.21  3.57  15.8     0     0     3     4 Duster 360 
##  8  24.4 4 Cyl  147.    62  3.69  3.19  20       1     0     4     2 Merc 240D  
##  9  22.8 4 Cyl  141.    95  3.92  3.15  22.9     1     0     4     2 Merc 230   
## 10  19.2 6 Cyl  168.   123  3.92  3.44  18.3     1     0     4     4 Merc 280   
## # … with 22 more rows
```
…
```r
mtcars %>%
  mutate(cyl=factor(cyl,levels=c(4,6,8),
                    labels=c("4 Cyl","6 Cyl","8 Cyl")),
         cyl2 = fct_recode(cyl,"Small"="4 Cyl",
                            "Big"="6 Cyl",
                            "Big"="8 Cyl")) %>%
  select(cyl,cyl2)
```

```
## # A tibble: 32 × 2
##    cyl   cyl2 
##    <fct> <fct>
##  1 6 Cyl Big  
##  2 6 Cyl Big  
##  3 4 Cyl Small
##  4 6 Cyl Big  
##  5 8 Cyl Big  
##  6 6 Cyl Big  
##  7 8 Cyl Big  
##  8 4 Cyl Small
##  9 4 Cyl Small
## 10 6 Cyl Big  
## # … with 22 more rows
```
…
```r
mtcars %>%
  mutate(miles_per_liter = mpg*3.78,
         miles_per_gallon=miles_per_liter/3.78) %>%
  select(miles_per_liter,mpg,miles_per_gallon)
```

```
## # A tibble: 32 × 3
##    miles_per_liter   mpg miles_per_gallon
##              <dbl> <dbl>            <dbl>
##  1            79.4  21               21  
##  2            79.4  21               21  
##  3            86.2  22.8             22.8
##  4            80.9  21.4             21.4
##  5            70.7  18.7             18.7
##  6            68.4  18.1             18.1
##  7            54.1  14.3             14.3
##  8            92.2  24.4             24.4
##  9            86.2  22.8             22.8
## 10            72.6  19.2             19.2
## # … with 22 more rows
```
---
## dplyr::group_by()

```r
mtcars %>%
  group_by(cyl)
```

```
## # A tibble: 32 × 12
## # Groups:   cyl [3]
##      mpg   cyl  disp    hp  drat    wt  qsec    vs    am  gear  carb name       
##    <dbl> <dbl> <dbl> <dbl> <dbl> <dbl> <dbl> <dbl> <dbl> <dbl> <dbl> <chr>      
##  1  21       6  160    110  3.9   2.62  16.5     0     1     4     4 Mazda RX4  
##  2  21       6  160    110  3.9   2.88  17.0     0     1     4     4 Mazda RX4 …
##  3  22.8     4  108     93  3.85  2.32  18.6     1     1     4     1 Datsun 710 
##  4  21.4     6  258    110  3.08  3.22  19.4     1     0     3     1 Hornet 4 D…
##  5  18.7     8  360    175  3.15  3.44  17.0     0     0     3     2 Hornet Spo…
##  6  18.1     6  225    105  2.76  3.46  20.2     1     0     3     1 Valiant    
##  7  14.3     8  360    245  3.21  3.57  15.8     0     0     3     4 Duster 360 
##  8  24.4     4  147.    62  3.69  3.19  20       1     0     4     2 Merc 240D  
##  9  22.8     4  141.    95  3.92  3.15  22.9     1     0     4     2 Merc 230   
## 10  19.2     6  168.   123  3.92  3.44  18.3     1     0     4     4 Merc 280   
## # … with 22 more rows
```
---
## dplyr::group_by()

```r
mtcars %>%
  group_by(cyl) %>%
  mutate(mean_mpg_per_cyl=mean(mpg)) %>%
  select(mpg,cyl,disp,mean_mpg_per_cyl)
```

```
## # A tibble: 32 × 4
## # Groups:   cyl [3]
##      mpg   cyl  disp mean_mpg_per_cyl
##    <dbl> <dbl> <dbl>            <dbl>
##  1  21       6  160              19.7
##  2  21       6  160              19.7
##  3  22.8     4  108              26.7
##  4  21.4     6  258              19.7
##  5  18.7     8  360              15.1
##  6  18.1     6  225              19.7
##  7  14.3     8  360              15.1
##  8  24.4     4  147.             26.7
##  9  22.8     4  141.             26.7
## 10  19.2     6  168.             19.7
## # … with 22 more rows
```
---
## dplyr::group_by()

```r
mtcars %>%
  group_by(cyl) %>%
  mutate(max_mpg_per_cyl=max(mpg))%>%
  select(mpg,cyl,disp,max_mpg_per_cyl)
```

```
## # A tibble: 32 × 4
## # Groups:   cyl [3]
##      mpg   cyl  disp max_mpg_per_cyl
##    <dbl> <dbl> <dbl>           <dbl>
##  1  21       6  160             21.4
##  2  21       6  160             21.4
##  3  22.8     4  108             33.9
##  4  21.4     6  258             21.4
##  5  18.7     8  360             19.2
##  6  18.1     6  225             21.4
##  7  14.3     8  360             19.2
##  8  24.4     4  147.            33.9
##  9  22.8     4  141.            33.9
## 10  19.2     6  168.            21.4
## # … with 22 more rows
```
…
```r
mtcars %>%
  arrange(cyl,mpg) %>%
  group_by(cyl) %>%
  mutate(n=1:n()) %>%
  mutate(type=ifelse(n==1,"Best in class","Other")) %>%
  select(cyl,mpg,type,name)
```

```
## # A tibble: 32 × 4
## # Groups:   cyl [3]
##      cyl   mpg type          name         
##    <dbl> <dbl> <chr>         <chr>        
##  1     4  21.4 Best in class Volvo 142E   
##  2     4  21.5 Other         Toyota Corona
##  3     4  22.8 Other         Datsun 710   
##  4     4  22.8 Other         Merc 230     
##  5     4  24.4 Other         Merc 240D    
##  6     4  26   Other         Porsche 914-2
##  7     4  27.3 Other         Fiat X1-9    
##  8     4  30.4 Other         Honda Civic  
##  9     4  30.4 Other         Lotus Europa 
## 10     4  32.4 Other         Fiat 128     
## # … with 22 more rows
```
…
---

## tidy from wide to long

```r
tidy_df <- untidy_df %>%
  pivot_longer(-age,names_to = c("gender","year"),
               values_to = "value",names_sep = "_")

tidy_df  
```

```
## # A tibble: 78 × 4
##      age gender year  value
##    <int> <chr>  <chr> <dbl>
##  1    18 male   2016  52579
##  2    18 female 2016  52796
##  3    18 male   2017  55592
##  4    18 female 2017  50408
##  5    18 male   2018  50659
##  6    18 female 2018  49530
##  7    19 male   2016  52374
##  8    19 female 2016  53110
##  9    19 male   2017  56601
## 10    19 female 2017  53242
## # … with 68 more rows
```
…
---

```r
to_plot <- ces_2019_subset %>%
  group_by(q3_gender,q4_province) %>%
  summarise(avg_feeling_lib=mean(q14_feeling_liberal_party,na.rm=TRUE),.groups = 'drop')
to_plot
```

```
## # A tibble: 21 × 3
##    q3_gender q4_province                   avg_feeling_lib
##    <fct>     <fct>                                   <dbl>
##  1 (1) Male  (1) Newfoundland and Labrador            45.3
##  2 (1) Male  (2) Prince Edward Island                 46.5
##  3 (1) Male  (3) Nova Scotia                          49.4
##  4 (1) Male  (4) New Brunswick                        47.8
##  5 (1) Male  (5) Quebec                               49.2
##  6 (1) Male  (6) Ontario                              50.3
##  7 (1) Male  (7) Manitoba                             40.7
##  8 (1) Male  (8) Saskatchewan                         32.1
##  9 (1) Male  (9) Alberta                              24.7
## 10 (1) Male  (10) British Columbia                    43.3
## # … with 11 more rows
```
…
