Week 3: Data transformation
…
which applies the verbs, but "by group"

---

### Let's look at the flights data frame

```r
library(nycflights13)
flights
```

```
## # A tibble: 336,776 × 19
##     year month   day dep_time sched_dep_time dep_delay arr_time sched_arr_time
##    <int> <int> <int>    <int>          <int>     <dbl>    <int>          <int>
##  1  2013     1     1      517            515         2      830            819
##  2  2013     1     1      533            529         4      850            830
##  3  2013     1     1      542            540         2      923            850
##  4  2013     1     1      544            545        -1     1004           1022
##  5  2013     1     1      554            600        -6      812            837
##  6  2013     1     1      554            558        -4      740            728
##  7  2013     1     1      555            600        -5      913            854
##  8  2013     1     1      557            600        -3      709            723
##  9  2013     1     1      557            600        -3      838            846
## 10  2013     1     1      558            600        -2      753            745
## # … with 336,766 more rows, and 11 more variables: arr_delay <dbl>,
## #   carrier <chr>, flight <int>, tailnum <chr>, origin <chr>, dest <chr>,
## #   air_time <dbl>, distance <dbl>, hour <dbl>, minute <dbl>, time_hour <dttm>
```

---

### filter()

```r
filter(flights,month==1,day==1)
```

```
## # A tibble: 842 × 19
##     year month   day dep_time sched_dep_time dep_delay arr_time sched_arr_time
##    <int> <int> <int>    <int>          <int>     <dbl>    <int>          <int>
##  1  2013     1     1      517            515         2      830            819
##  2  2013     1     1      533            529         4      850            830
##  3  2013     1     1      542            540         2      923            850
##  4  2013     1     1      544            545        -1     1004           1022
##  5  2013     1     1      554            600        -6      812            837
##  6  2013     1     1      554            558        -4      740            728
##  7  2013     1     1      555            600        -5      913            854
##  8  2013     1     1      557            600        -3      709            723
##  9  2013     1     1      557            600        -3      838            846
## 10  2013     1     1      558            600        -2      753            745
## # … with 832 more rows, and 11 more variables: arr_delay <dbl>, carrier <chr>,
## #   flight <int>, tailnum <chr>, origin <chr>, dest <chr>, air_time <dbl>,
## #   distance <dbl>, hour <dbl>, minute <dbl>, time_hour <dttm>
```
---
### filter()

```r
filtered_flights <- filter(flights,month==1,day==1)
filtered_flights
```

```
## # A tibble: 842 × 19
##     year month   day dep_time sched_dep_time dep_delay arr_time sched_arr_time
##    <int> <int> <int>    <int>          <int>     <dbl>    <int>          <int>
##  1  2013     1     1      517            515         2      830            819
##  2  2013     1     1      533            529         4      850            830
##  3  2013     1     1      542            540         2      923            850
##  4  2013     1     1      544            545        -1     1004           1022
##  5  2013     1     1      554            600        -6      812            837
##  6  2013     1     1      554            558        -4      740            728
##  7  2013     1     1      555            600        -5      913            854
##  8  2013     1     1      557            600        -3      709            723
##  9  2013     1     1      557            600        -3      838            846
## 10  2013     1     1      558            600        -2      753            745
## # … with 832 more rows, and 11 more variables: arr_delay <dbl>, carrier <chr>,
## #   flight <int>, tailnum <chr>, origin <chr>, dest <chr>, air_time <dbl>,
## #   distance <dbl>, hour <dbl>, minute <dbl>, time_hour <dttm>
```
---
### filter()

```r
filter(flights,arr_time>2330)
```

```
## # A tibble: 6,196 × 19
##     year month   day dep_time sched_dep_time dep_delay arr_time sched_arr_time
##    <int> <int> <int>    <int>          <int>     <dbl>    <int>          <int>
##  1  2013     1     1     1843           1835         8     2339           2346
##  2  2013     1     1     1846           1855        -9     2336           2355
##  3  2013     1     1     1952           1930        22     2358           2207
##  4  2013     1     1     1959           1930        29     2331           2306
##  5  2013     1     1     2021           2025        -4     2351           2341
##  6  2013     1     1     2025           2030        -5     2334           2348
##  7  2013     1     1     2025           2028        -3     2358           2351
##  8  2013     1     1     2030           2035        -5     2354           2342
##  9  2013     1     1     2031           2030         1     2344           2335
## 10  2013     1     1     2035           2030         5     2337              5
## # … with 6,186 more rows, and 11 more variables: arr_delay <dbl>,
## #   carrier <chr>, flight <int>, tailnum <chr>, origin <chr>, dest <chr>,
## #   air_time <dbl>, distance <dbl>, hour <dbl>, minute <dbl>, time_hour <dttm>
```
---

### filter()

```r
filter(flights,arr_time %in% c(2200,2300,2400))
```

```
## # A tibble: 794 × 19
##     year month   day dep_time sched_dep_time dep_delay arr_time sched_arr_time
##    <int> <int> <int>    <int>          <int>     <dbl>    <int>          <int>
##  1  2013     1     1     1912           1915        -3     2200           2219
##  2  2013     1     1     2209           2155        14     2400           2337
##  3  2013     1     2     1918           1925        -7     2200           2205
##  4  2013     1     3     1857           1900        -3     2200           2301
##  5  2013     1     3     1941           1946        -5     2200           2154
##  6  2013     1     3     1946           1930        16     2300           2247
##  7  2013     1     4     1859           1900        -1     2200           2238
##  8  2013     1     5     2116           2130       -14     2400             18
##  9  2013     1     6     1950           2000       -10     2200           2145
## 10  2013     1     6     2048           2040         8     2200           2149
## # … with 784 more rows, and 11 more variables: arr_delay <dbl>, carrier <chr>,
## #   flight <int>, tailnum <chr>, origin <chr>, dest <chr>, air_time <dbl>,
## #   distance <dbl>, hour <dbl>, minute <dbl>, time_hour <dttm>
```
---

### filter()

```r
filter(flights,is.na(arr_time))
```

```
## # A tibble: 8,713 × 19
##     year month   day dep_time sched_dep_time dep_delay arr_time sched_arr_time
##    <int> <int> <int>    <int>          <int>     <dbl>    <int>          <int>
##  1  2013     1     1     2016           1930        46       NA           2220
##  2  2013     1     1       NA           1630        NA       NA           1815
##  3  2013     1     1       NA           1935        NA       NA           2240
##  4  2013     1     1       NA           1500        NA       NA           1825
##  5  2013     1     1       NA            600        NA       NA            901
##  6  2013     1     2     2041           2045        -4       NA           2359
##  7  2013     1     2     2145           2129        16       NA             33
##  8  2013     1     2       NA           1540        NA       NA           1747
##  9  2013     1     2       NA           1620        NA       NA           1746
## 10  2013     1     2       NA           1355        NA       NA           1459
## # … with 8,703 more rows, and 11 more variables: arr_delay <dbl>,
## #   carrier <chr>, flight <int>, tailnum <chr>, origin <chr>, dest <chr>,
## #   air_time <dbl>, distance <dbl>, hour <dbl>, minute <dbl>, time_hour <dttm>
```
…
---

### select()

```r
select(flights,month,day)  
```

```
## # A tibble: 336,776 × 2
##    month   day
##    <int> <int>
##  1     1     1
##  2     1     1
##  3     1     1
##  4     1     1
##  5     1     1
##  6     1     1
##  7     1     1
##  8     1     1
##  9     1     1
## 10     1     1
## # … with 336,766 more rows
```
---

### select()

```r
select(flights,-month,-day)  
```

```
## # A tibble: 336,776 × 17
##     year dep_time sched_dep_time dep_delay arr_time sched_arr_time arr_delay
##    <int>    <int>          <int>     <dbl>    <int>          <int>     <dbl>
##  1  2013      517            515         2      830            819        11
##  2  2013      533            529         4      850            830        20
##  3  2013      542            540         2      923            850        33
##  4  2013      544            545        -1     1004           1022       -18
##  5  2013      554            600        -6      812            837       -25
##  6  2013      554            558        -4      740            728        12
##  7  2013      555            600        -5      913            854        19
##  8  2013      557            600        -3      709            723       -14
##  9  2013      557            600        -3      838            846        -8
## 10  2013      558            600        -2      753            745         8
## # … with 336,766 more rows, and 10 more variables: carrier <chr>, flight <int>,
## #   tailnum <chr>, origin <chr>, dest <chr>, air_time <dbl>, distance <dbl>,
## #   hour <dbl>, minute <dbl>, time_hour <dttm>
```
---

### select()

```r
select(flights,contains('time'))
```

```
## # A tibble: 336,776 × 6
##    dep_time sched_dep_time arr_time sched_arr_time air_time time_hour          
##       <int>          <int>    <int>          <int>    <dbl> <dttm>             
##  1      517            515      830            819      227 2013-01-01 05:00:00
##  2      533            529      850            830      227 2013-01-01 05:00:00
##  3      542            540      923            850      160 2013-01-01 05:00:00
##  4      544            545     1004           1022      183 2013-01-01 05:00:00
##  5      554            600      812            837      116 2013-01-01 06:00:00
##  6      554            558      740            728      150 2013-01-01 05:00:00
##  7      555            600      913            854      158 2013-01-01 06:00:00
##  8      557            600      709            723       53 2013-01-01 06:00:00
##  9      557            600      838            846      140 2013-01-01 06:00:00
## 10      558            600      753            745      138 2013-01-01 06:00:00
## # … with 336,766 more rows
```
…
```r
mtcars_grouped <- group_by(mtcars,cyl)
mutate(mtcars_grouped,avg_mpg_cyl=mean(mpg))
```

```
## # A tibble: 32 × 12
## # Groups:   cyl [3]
##      mpg   cyl  disp    hp  drat    wt  qsec    vs    am  gear  carb avg_mpg_cyl
##    <dbl> <dbl> <dbl> <dbl> <dbl> <dbl> <dbl> <dbl> <dbl> <dbl> <dbl>       <dbl>
##  1  21       6  160    110  3.9   2.62  16.5     0     1     4     4        19.7
##  2  21       6  160    110  3.9   2.88  17.0     0     1     4     4        19.7
##  3  22.8     4  108     93  3.85  2.32  18.6     1     1     4     1        26.7
##  4  21.4     6  258    110  3.08  3.22  19.4     1     0     3     1        19.7
##  5  18.7     8  360    175  3.15  3.44  17.0     0     0     3     2        15.1
##  6  18.1     6  225    105  2.76  3.46  20.2     1     0     3     1        19.7
##  7  14.3     8  360    245  3.21  3.57  15.8     0     0     3     4        15.1
##  8  24.4     4  147.    62  3.69  3.19  20       1     0     4     2        26.7
##  9  22.8     4  141.    95  3.92  3.15  22.9     1     0     4     2        26.7
## 10  19.2     6  168.   123  3.92  3.44  18.3     1     0     4     4        19.7
## # … with 22 more rows
```
…
