Week 10: Working with weighted data
…
```r
df_sub %>% arrange(desc(weight))
```

```
## # A tibble: 4,021 × 5
##    q31                q4                    q3         age_range          weight
##    <chr>              <chr>                 <chr>      <chr>               <dbl>
##  1 (3) About the same (10) British Columbia (3) Other  (2) 25-34 years … 4.00e-2
##  2 (3) About the same (6) Ontario           (2) Female (1) 18-24 years … 8.88e-4
##  3 (1) Better         (6) Ontario           (2) Female (1) 18-24 years … 8.88e-4
##  4 (2) Worse          (6) Ontario           (2) Female (1) 18-24 years … 8.88e-4
##  5 (1) Better         (6) Ontario           (2) Female (1) 18-24 years … 8.88e-4
##  6 (-9) Don't know    (6) Ontario           (2) Female (1) 18-24 years … 8.88e-4
##  7 (3) About the same (6) Ontario           (2) Female (1) 18-24 years … 8.88e-4
##  8 (3) About the same (6) Ontario           (2) Female (1) 18-24 years … 8.88e-4
##  9 (2) Worse          (6) Ontario           (2) Female (1) 18-24 years … 8.88e-4
## 10 (3) About the same (6) Ontario           (2) Female (1) 18-24 years … 8.88e-4
## # … with 4,011 more rows
```
…
