Week 9: Functions, loops
…
---

## Example 

Imagine we have 200 respondents on 10 questions. Answers: {1:"Strongly disagree",2:"Somewhat disagree",3:"Neutral",4:"Somewhat agree",5:"Strongly agree",6:"Don't know"}. We want to plot the response to each question in a separate figure.

```r
questions <- paste0("question",1:10)
df <- as_tibble(matrix(sample(1:6,size=2000,replace = TRUE),nrow=200))
names(df) <- questions
df
```

```
## # A tibble: 200 × 10
##    question1 question2 question3 question4 question5 question6 question7
##        <int>     <int>     <int>     <int>     <int>     <int>     <int>
##  1         5         6         1         3         3         3         6
##  2         6         3         1         1         3         4         6
##  3         3         5         5         5         4         6         5
##  4         3         1         2         6         3         2         5
##  5         1         2         6         4         5         5         6
##  6         3         3         5         5         5         3         1
##  7         6         5         6         3         6         1         1
##  8         5         3         3         3         5         2         4
##  9         1         5         5         2         4         3         1
## 10         3         6         1         4         2         3         1
## # … with 190 more rows, and 3 more variables: question8 <int>, question9 <int>,
## #   question10 <int>
```
…
